%YAML 1.1
%TAG !u! tag:unity3d.com,2011:
--- !u!1045 &1
EditorBuildSettings:
  m_ObjectHideFlags: 0
  serializedVersion: 2
  m_Scenes:
  - enabled: 1
    path: Assets/Scenes/TitleScene.unity
    guid: 904279b55f430410ea7ff2b4fd587238
  - enabled: 1
    path: Assets/Scenes/Stage01.unity
    guid: 5bd284243fd3e9a45a5cbac263afa880
  - enabled: 1
    path: Assets/Scenes/Stage02.unity
    guid: ed3f7272312bd744bb894b000435756b
  - enabled: 1
    path: Assets/Scenes/Stage03.unity
    guid: 13df695d5c0560240a02830249ae7052
  - enabled: 1
    path: Assets/Scenes/Stage04.unity
    guid: be7cb541550f64e34adfef8b57136beb
  - enabled: 1
    path: Assets/Scenes/WinScene.unity
    guid: 493c17d6e475040228868c2fd530718a
  - enabled: 1
    path: Assets/Scenes/CreditsScenes.unity
    guid: 78d5507ab1c9c4cf885d51d91888c6bf
  - enabled: 1
    path: Assets/Scenes/LoseScene.unity
    guid: 96e8434c1e3724ad3bb557c996bcd0e7
  m_configObjects: {}
