%YAML 1.1
%TAG !u! tag:unity3d.com,2011:
--- !u!1 &7507207617108350768
GameObject:
  m_ObjectHideFlags: 0
  m_CorrespondingSourceObject: {fileID: 0}
  m_PrefabInstance: {fileID: 0}
  m_PrefabAsset: {fileID: 0}
  serializedVersion: 6
  m_Component:
  - component: {fileID: 7507207617108350732}
  - component: {fileID: 7507207617108350733}
  - component: {fileID: 7507207617108350770}
  - component: {fileID: 7507207617108350771}
  m_Layer: 0
  m_Name: PickUp Object
  m_TagString: Interact
  m_Icon: {fileID: 0}
  m_NavMeshLayer: 0
  m_StaticEditorFlags: 0
  m_IsActive: 1
--- !u!4 &7507207617108350732
Transform:
  m_ObjectHideFlags: 0
  m_CorrespondingSourceObject: {fileID: 0}
  m_PrefabInstance: {fileID: 0}
  m_PrefabAsset: {fileID: 0}
  m_GameObject: {fileID: 7507207617108350768}
  m_LocalRotation: {x: 0, y: 0, z: 0, w: 1}
  m_LocalPosition: {x: 0, y: 0, z: 0}
  m_LocalScale: {x: 1, y: 1, z: 1}
  m_Children:
  - {fileID: 6759245188462034805}
  m_Father: {fileID: 0}
  m_RootOrder: 0
  m_LocalEulerAnglesHint: {x: 0, y: 0, z: 0}
--- !u!212 &7507207617108350733
SpriteRenderer:
  m_ObjectHideFlags: 0
  m_CorrespondingSourceObject: {fileID: 0}
  m_PrefabInstance: {fileID: 0}
  m_PrefabAsset: {fileID: 0}
  m_GameObject: {fileID: 7507207617108350768}
  m_Enabled: 1
  m_CastShadows: 0
  m_ReceiveShadows: 0
  m_DynamicOccludee: 1
  m_MotionVectors: 1
  m_LightProbeUsage: 1
  m_ReflectionProbeUsage: 1
  m_RenderingLayerMask: 1
  m_RendererPriority: 0
  m_Materials:
  - {fileID: 10754, guid: 0000000000000000f000000000000000, type: 0}
  m_StaticBatchInfo:
    firstSubMesh: 0
    subMeshCount: 0
  m_StaticBatchRoot: {fileID: 0}
  m_ProbeAnchor: {fileID: 0}
  m_LightProbeVolumeOverride: {fileID: 0}
  m_ScaleInLightmap: 1
  m_PreserveUVs: 0
  m_IgnoreNormalsForChartDetection: 0
  m_ImportantGI: 0
  m_StitchLightmapSeams: 0
  m_SelectedEditorRenderState: 0
  m_MinimumChartSize: 4
  m_AutoUVMaxDistance: 0.5
  m_AutoUVMaxAngle: 89
  m_LightmapParameters: {fileID: 0}
  m_SortingLayerID: -1705723123
  m_SortingLayer: 3
  m_SortingOrder: 0
  m_Sprite: {fileID: 21300002, guid: f6493efeff6b040ca99cd33f5d35db14, type: 3}
  m_Color: {r: 1, g: 1, b: 1, a: 1}
  m_FlipX: 0
  m_FlipY: 0
  m_DrawMode: 0
  m_Size: {x: 0.11, y: 0.1}
  m_AdaptiveModeThreshold: 0.5
  m_SpriteTileMode: 0
  m_WasSpriteAssigned: 1
  m_MaskInteraction: 0
  m_SpriteSortPoint: 0
--- !u!61 &7507207617108350770
BoxCollider2D:
  m_ObjectHideFlags: 0
  m_CorrespondingSourceObject: {fileID: 0}
  m_PrefabInstance: {fileID: 0}
  m_PrefabAsset: {fileID: 0}
  m_GameObject: {fileID: 7507207617108350768}
  m_Enabled: 1
  m_Density: 1
  m_Material: {fileID: 0}
  m_IsTrigger: 1
  m_UsedByEffector: 0
  m_UsedByComposite: 0
  m_Offset: {x: 0, y: 0}
  m_SpriteTilingProperty:
    border: {x: 0, y: 0, z: 0, w: 0}
    pivot: {x: 0.5, y: 0.5}
    oldSize: {x: 0.11, y: 0.1}
    newSize: {x: 0.11, y: 0.1}
    adaptiveTilingThreshold: 0.5
    drawMode: 0
    adaptiveTiling: 0
  m_AutoTiling: 0
  serializedVersion: 2
  m_Size: {x: 0.11, y: 0.1}
  m_EdgeRadius: 0
--- !u!114 &7507207617108350771
MonoBehaviour:
  m_ObjectHideFlags: 0
  m_CorrespondingSourceObject: {fileID: 0}
  m_PrefabInstance: {fileID: 0}
  m_PrefabAsset: {fileID: 0}
  m_GameObject: {fileID: 7507207617108350768}
  m_Enabled: 1
  m_EditorHideFlags: 0
  m_Script: {fileID: 11500000, guid: f96e8f501585e44908da9aa48650bc69, type: 3}
  m_Name: 
  m_EditorClassIdentifier: 
  iconPrefab: {fileID: 6759245188462034811}
  interactionIcon: {fileID: 21300000, guid: 2a23b66c788f94ea0a601b6ea6f37cc0, type: 3}
  currentlyInteractible: 1
  isPicked: 0
--- !u!1001 &7507207617154757982
PrefabInstance:
  m_ObjectHideFlags: 0
  serializedVersion: 2
  m_Modification:
    m_TransformParent: {fileID: 7507207617108350732}
    m_Modifications:
    - target: {fileID: 3883048606224189989, guid: ba54f3baf51a44354b0140ead826d36e,
        type: 3}
      propertyPath: m_Name
      value: InteractionIconPrefab
      objectReference: {fileID: 0}
    - target: {fileID: 3883048606224189995, guid: ba54f3baf51a44354b0140ead826d36e,
        type: 3}
      propertyPath: m_LocalPosition.x
      value: 0
      objectReference: {fileID: 0}
    - target: {fileID: 3883048606224189995, guid: ba54f3baf51a44354b0140ead826d36e,
        type: 3}
      propertyPath: m_LocalPosition.y
      value: 0.1
      objectReference: {fileID: 0}
    - target: {fileID: 3883048606224189995, guid: ba54f3baf51a44354b0140ead826d36e,
        type: 3}
      propertyPath: m_LocalPosition.z
      value: 0
      objectReference: {fileID: 0}
    - target: {fileID: 3883048606224189995, guid: ba54f3baf51a44354b0140ead826d36e,
        type: 3}
      propertyPath: m_LocalRotation.x
      value: 0
      objectReference: {fileID: 0}
    - target: {fileID: 3883048606224189995, guid: ba54f3baf51a44354b0140ead826d36e,
        type: 3}
      propertyPath: m_LocalRotation.y
      value: 0
      objectReference: {fileID: 0}
    - target: {fileID: 3883048606224189995, guid: ba54f3baf51a44354b0140ead826d36e,
        type: 3}
      propertyPath: m_LocalRotation.z
      value: 0
      objectReference: {fileID: 0}
    - target: {fileID: 3883048606224189995, guid: ba54f3baf51a44354b0140ead826d36e,
        type: 3}
      propertyPath: m_LocalRotation.w
      value: 1
      objectReference: {fileID: 0}
    - target: {fileID: 3883048606224189995, guid: ba54f3baf51a44354b0140ead826d36e,
        type: 3}
      propertyPath: m_RootOrder
      value: 0
      objectReference: {fileID: 0}
    - target: {fileID: 3883048606224189995, guid: ba54f3baf51a44354b0140ead826d36e,
        type: 3}
      propertyPath: m_LocalEulerAnglesHint.x
      value: 0
      objectReference: {fileID: 0}
    - target: {fileID: 3883048606224189995, guid: ba54f3baf51a44354b0140ead826d36e,
        type: 3}
      propertyPath: m_LocalEulerAnglesHint.y
      value: 0
      objectReference: {fileID: 0}
    - target: {fileID: 3883048606224189995, guid: ba54f3baf51a44354b0140ead826d36e,
        type: 3}
      propertyPath: m_LocalEulerAnglesHint.z
      value: 0
      objectReference: {fileID: 0}
    - target: {fileID: 3883048606224189994, guid: ba54f3baf51a44354b0140ead826d36e,
        type: 3}
      propertyPath: m_SortingLayerID
      value: -1224940917
      objectReference: {fileID: 0}
    - target: {fileID: 3883048606224189994, guid: ba54f3baf51a44354b0140ead826d36e,
        type: 3}
      propertyPath: m_SortingLayer
      value: 4
      objectReference: {fileID: 0}
    m_RemovedComponents: []
  m_SourcePrefab: {fileID: 100100000, guid: ba54f3baf51a44354b0140ead826d36e, type: 3}
--- !u!1 &6759245188462034811 stripped
GameObject:
  m_CorrespondingSourceObject: {fileID: 3883048606224189989, guid: ba54f3baf51a44354b0140ead826d36e,
    type: 3}
  m_PrefabInstance: {fileID: 7507207617154757982}
  m_PrefabAsset: {fileID: 0}
--- !u!4 &6759245188462034805 stripped
Transform:
  m_CorrespondingSourceObject: {fileID: 3883048606224189995, guid: ba54f3baf51a44354b0140ead826d36e,
    type: 3}
  m_PrefabInstance: {fileID: 7507207617154757982}
  m_PrefabAsset: {fileID: 0}
