%YAML 1.1
%TAG !u! tag:unity3d.com,2011:
--- !u!1 &6311150983539271493
GameObject:
  m_ObjectHideFlags: 0
  m_CorrespondingSourceObject: {fileID: 0}
  m_PrefabInstance: {fileID: 0}
  m_PrefabAsset: {fileID: 0}
  serializedVersion: 6
  m_Component:
  - component: {fileID: 3359227506867848379}
  - component: {fileID: 6938023058557714805}
  - component: {fileID: 3779506751091161844}
  m_Layer: 31
  m_Name: Layer1
  m_TagString: Untagged
  m_Icon: {fileID: 0}
  m_NavMeshLayer: 0
  m_StaticEditorFlags: 0
  m_IsActive: 1
--- !u!4 &3359227506867848379
Transform:
  m_ObjectHideFlags: 0
  m_CorrespondingSourceObject: {fileID: 0}
  m_PrefabInstance: {fileID: 0}
  m_PrefabAsset: {fileID: 0}
  m_GameObject: {fileID: 6311150983539271493}
  m_LocalRotation: {x: -0, y: -0, z: -0, w: 1}
  m_LocalPosition: {x: 0, y: 0, z: 0}
  m_LocalScale: {x: 1, y: 1, z: 1}
  m_Children: []
  m_Father: {fileID: 9088183466502657929}
  m_RootOrder: 0
  m_LocalEulerAnglesHint: {x: 0, y: 0, z: 0}
--- !u!1839735485 &6938023058557714805
Tilemap:
  m_ObjectHideFlags: 0
  m_CorrespondingSourceObject: {fileID: 0}
  m_PrefabInstance: {fileID: 0}
  m_PrefabAsset: {fileID: 0}
  m_GameObject: {fileID: 6311150983539271493}
  m_Enabled: 1
  m_Tiles:
  - first: {x: -3, y: -2, z: 0}
    second:
      m_TileIndex: 10
      m_TileSpriteIndex: 10
      m_TileMatrixIndex: 0
      m_TileColorIndex: 0
      m_ObjectToInstantiate: {fileID: 0}
      m_TileFlags: 1
      m_ColliderType: 1
  - first: {x: -1, y: -2, z: 0}
    second:
      m_TileIndex: 16
      m_TileSpriteIndex: 16
      m_TileMatrixIndex: 0
      m_TileColorIndex: 0
      m_ObjectToInstantiate: {fileID: 0}
      m_TileFlags: 1
      m_ColliderType: 1
  - first: {x: 0, y: -2, z: 0}
    second:
      m_TileIndex: 17
      m_TileSpriteIndex: 17
      m_TileMatrixIndex: 0
      m_TileColorIndex: 0
      m_ObjectToInstantiate: {fileID: 0}
      m_TileFlags: 1
      m_ColliderType: 1
  - first: {x: 1, y: -2, z: 0}
    second:
      m_TileIndex: 15
      m_TileSpriteIndex: 15
      m_TileMatrixIndex: 0
      m_TileColorIndex: 0
      m_ObjectToInstantiate: {fileID: 0}
      m_TileFlags: 1
      m_ColliderType: 1
  - first: {x: 3, y: -2, z: 0}
    second:
      m_TileIndex: 12
      m_TileSpriteIndex: 12
      m_TileMatrixIndex: 0
      m_TileColorIndex: 0
      m_ObjectToInstantiate: {fileID: 0}
      m_TileFlags: 1
      m_ColliderType: 1
  - first: {x: 4, y: -2, z: 0}
    second:
      m_TileIndex: 13
      m_TileSpriteIndex: 13
      m_TileMatrixIndex: 0
      m_TileColorIndex: 0
      m_ObjectToInstantiate: {fileID: 0}
      m_TileFlags: 1
      m_ColliderType: 1
  - first: {x: 2, y: -1, z: 0}
    second:
      m_TileIndex: 14
      m_TileSpriteIndex: 14
      m_TileMatrixIndex: 0
      m_TileColorIndex: 0
      m_ObjectToInstantiate: {fileID: 0}
      m_TileFlags: 1
      m_ColliderType: 1
  - first: {x: 3, y: -1, z: 0}
    second:
      m_TileIndex: 6
      m_TileSpriteIndex: 6
      m_TileMatrixIndex: 0
      m_TileColorIndex: 0
      m_ObjectToInstantiate: {fileID: 0}
      m_TileFlags: 1
      m_ColliderType: 1
  - first: {x: 4, y: -1, z: 0}
    second:
      m_TileIndex: 7
      m_TileSpriteIndex: 7
      m_TileMatrixIndex: 0
      m_TileColorIndex: 0
      m_ObjectToInstantiate: {fileID: 0}
      m_TileFlags: 1
      m_ColliderType: 1
  - first: {x: -3, y: 0, z: 0}
    second:
      m_TileIndex: 5
      m_TileSpriteIndex: 5
      m_TileMatrixIndex: 0
      m_TileColorIndex: 0
      m_ObjectToInstantiate: {fileID: 0}
      m_TileFlags: 1
      m_ColliderType: 1
  - first: {x: 0, y: 0, z: 0}
    second:
      m_TileIndex: 11
      m_TileSpriteIndex: 11
      m_TileMatrixIndex: 0
      m_TileColorIndex: 0
      m_ObjectToInstantiate: {fileID: 0}
      m_TileFlags: 1
      m_ColliderType: 1
  - first: {x: 2, y: 0, z: 0}
    second:
      m_TileIndex: 8
      m_TileSpriteIndex: 8
      m_TileMatrixIndex: 0
      m_TileColorIndex: 0
      m_ObjectToInstantiate: {fileID: 0}
      m_TileFlags: 1
      m_ColliderType: 1
  - first: {x: 4, y: 0, z: 0}
    second:
      m_TileIndex: 9
      m_TileSpriteIndex: 9
      m_TileMatrixIndex: 0
      m_TileColorIndex: 0
      m_ObjectToInstantiate: {fileID: 0}
      m_TileFlags: 1
      m_ColliderType: 1
  - first: {x: -3, y: 1, z: 0}
    second:
      m_TileIndex: 0
      m_TileSpriteIndex: 0
      m_TileMatrixIndex: 0
      m_TileColorIndex: 0
      m_ObjectToInstantiate: {fileID: 0}
      m_TileFlags: 1
      m_ColliderType: 1
  - first: {x: -2, y: 1, z: 0}
    second:
      m_TileIndex: 1
      m_TileSpriteIndex: 1
      m_TileMatrixIndex: 0
      m_TileColorIndex: 0
      m_ObjectToInstantiate: {fileID: 0}
      m_TileFlags: 1
      m_ColliderType: 1
  - first: {x: 0, y: 1, z: 0}
    second:
      m_TileIndex: 2
      m_TileSpriteIndex: 2
      m_TileMatrixIndex: 0
      m_TileColorIndex: 0
      m_ObjectToInstantiate: {fileID: 0}
      m_TileFlags: 1
      m_ColliderType: 1
  - first: {x: 2, y: 1, z: 0}
    second:
      m_TileIndex: 3
      m_TileSpriteIndex: 3
      m_TileMatrixIndex: 0
      m_TileColorIndex: 0
      m_ObjectToInstantiate: {fileID: 0}
      m_TileFlags: 1
      m_ColliderType: 1
  - first: {x: 4, y: 1, z: 0}
    second:
      m_TileIndex: 4
      m_TileSpriteIndex: 4
      m_TileMatrixIndex: 0
      m_TileColorIndex: 0
      m_ObjectToInstantiate: {fileID: 0}
      m_TileFlags: 1
      m_ColliderType: 1
  m_AnimatedTiles: {}
  m_TileAssetArray:
  - m_RefCount: 1
    m_Data: {fileID: 11400000, guid: 4e7896dfa9b2a4f39817a296c3fe980f, type: 2}
  - m_RefCount: 1
    m_Data: {fileID: 11400000, guid: 00f69458a2efe45a494430060f7c9237, type: 2}
  - m_RefCount: 1
    m_Data: {fileID: 11400000, guid: e89fb519947c84c56987a08ebfa0f026, type: 2}
  - m_RefCount: 1
    m_Data: {fileID: 11400000, guid: 968e23a7d512e4081b0efd4f2e95070e, type: 2}
  - m_RefCount: 1
    m_Data: {fileID: 11400000, guid: 22746c8ce295b42399f524ef4ca551db, type: 2}
  - m_RefCount: 1
    m_Data: {fileID: 11400000, guid: 988a9895a894047c583169b5dbd5100e, type: 2}
  - m_RefCount: 1
    m_Data: {fileID: 11400000, guid: c2ad8b31e2beb49cdb5dc7a434df3b13, type: 2}
  - m_RefCount: 1
    m_Data: {fileID: 11400000, guid: 238869998ad18490b82b31b2cfe9909b, type: 2}
  - m_RefCount: 1
    m_Data: {fileID: 11400000, guid: 1e8eeeb8fd2ad4c729731c6acbbb2750, type: 2}
  - m_RefCount: 1
    m_Data: {fileID: 11400000, guid: 963c3c3ca10354cc2ad186d952497c7a, type: 2}
  - m_RefCount: 1
    m_Data: {fileID: 11400000, guid: 2a14078ac4d2e4ddbac6b5ad429ca4b2, type: 2}
  - m_RefCount: 1
    m_Data: {fileID: 11400000, guid: 1917bf9c5498c49c2af63c67481ec93d, type: 2}
  - m_RefCount: 1
    m_Data: {fileID: 11400000, guid: 4ed65a6bb2454483cb576c0a6db20260, type: 2}
  - m_RefCount: 1
    m_Data: {fileID: 11400000, guid: 2fa2f1f53ad45434dbb620156932459a, type: 2}
  - m_RefCount: 1
    m_Data: {fileID: 11400000, guid: f4c5402ffff574598a1ab6e3b1969e32, type: 2}
  - m_RefCount: 1
    m_Data: {fileID: 11400000, guid: 7d81968f8d48b40f38170f248b2b9f29, type: 2}
  - m_RefCount: 1
    m_Data: {fileID: 11400000, guid: b3bd9cf6b767f445480b3a0639ecb1fe, type: 2}
  - m_RefCount: 1
    m_Data: {fileID: 11400000, guid: 787737d546d69439dbba3c3fc087183f, type: 2}
  m_TileSpriteArray:
  - m_RefCount: 1
    m_Data: {fileID: 21300000, guid: f6493efeff6b040ca99cd33f5d35db14, type: 3}
  - m_RefCount: 1
    m_Data: {fileID: 21300002, guid: f6493efeff6b040ca99cd33f5d35db14, type: 3}
  - m_RefCount: 1
    m_Data: {fileID: 21300004, guid: f6493efeff6b040ca99cd33f5d35db14, type: 3}
  - m_RefCount: 1
    m_Data: {fileID: 21300006, guid: f6493efeff6b040ca99cd33f5d35db14, type: 3}
  - m_RefCount: 1
    m_Data: {fileID: 21300008, guid: f6493efeff6b040ca99cd33f5d35db14, type: 3}
  - m_RefCount: 1
    m_Data: {fileID: 21300010, guid: f6493efeff6b040ca99cd33f5d35db14, type: 3}
  - m_RefCount: 1
    m_Data: {fileID: 21300012, guid: f6493efeff6b040ca99cd33f5d35db14, type: 3}
  - m_RefCount: 1
    m_Data: {fileID: 21300014, guid: f6493efeff6b040ca99cd33f5d35db14, type: 3}
  - m_RefCount: 1
    m_Data: {fileID: 21300016, guid: f6493efeff6b040ca99cd33f5d35db14, type: 3}
  - m_RefCount: 1
    m_Data: {fileID: 21300018, guid: f6493efeff6b040ca99cd33f5d35db14, type: 3}
  - m_RefCount: 1
    m_Data: {fileID: 21300020, guid: f6493efeff6b040ca99cd33f5d35db14, type: 3}
  - m_RefCount: 1
    m_Data: {fileID: 21300022, guid: f6493efeff6b040ca99cd33f5d35db14, type: 3}
  - m_RefCount: 1
    m_Data: {fileID: 21300024, guid: f6493efeff6b040ca99cd33f5d35db14, type: 3}
  - m_RefCount: 1
    m_Data: {fileID: 21300026, guid: f6493efeff6b040ca99cd33f5d35db14, type: 3}
  - m_RefCount: 1
    m_Data: {fileID: 21300028, guid: f6493efeff6b040ca99cd33f5d35db14, type: 3}
  - m_RefCount: 1
    m_Data: {fileID: 21300030, guid: f6493efeff6b040ca99cd33f5d35db14, type: 3}
  - m_RefCount: 1
    m_Data: {fileID: 21300032, guid: f6493efeff6b040ca99cd33f5d35db14, type: 3}
  - m_RefCount: 1
    m_Data: {fileID: 21300034, guid: f6493efeff6b040ca99cd33f5d35db14, type: 3}
  m_TileMatrixArray:
  - m_RefCount: 18
    m_Data:
      e00: 1
      e01: 0
      e02: 0
      e03: 0
      e10: 0
      e11: 1
      e12: 0
      e13: 0
      e20: 0
      e21: 0
      e22: 1
      e23: 0
      e30: 0
      e31: 0
      e32: 0
      e33: 1
  m_TileColorArray:
  - m_RefCount: 18
    m_Data: {r: 1, g: 1, b: 1, a: 1}
  m_AnimationFrameRate: 1
  m_Color: {r: 1, g: 1, b: 1, a: 1}
  m_Origin: {x: -3, y: -3, z: 0}
  m_Size: {x: 8, y: 5, z: 1}
  m_TileAnchor: {x: 0.5, y: 0.5, z: 0}
  m_TileOrientation: 0
  m_TileOrientationMatrix:
    e00: 1
    e01: 0
    e02: 0
    e03: 0
    e10: 0
    e11: 1
    e12: 0
    e13: 0
    e20: 0
    e21: 0
    e22: 1
    e23: 0
    e30: 0
    e31: 0
    e32: 0
    e33: 1
--- !u!483693784 &3779506751091161844
TilemapRenderer:
  m_ObjectHideFlags: 0
  m_CorrespondingSourceObject: {fileID: 0}
  m_PrefabInstance: {fileID: 0}
  m_PrefabAsset: {fileID: 0}
  m_GameObject: {fileID: 6311150983539271493}
  m_Enabled: 0
  m_CastShadows: 0
  m_ReceiveShadows: 0
  m_DynamicOccludee: 0
  m_MotionVectors: 1
  m_LightProbeUsage: 0
  m_ReflectionProbeUsage: 0
  m_RenderingLayerMask: 1
  m_RendererPriority: 0
  m_Materials:
  - {fileID: 10754, guid: 0000000000000000f000000000000000, type: 0}
  m_StaticBatchInfo:
    firstSubMesh: 0
    subMeshCount: 0
  m_StaticBatchRoot: {fileID: 0}
  m_ProbeAnchor: {fileID: 0}
  m_LightProbeVolumeOverride: {fileID: 0}
  m_ScaleInLightmap: 1
  m_PreserveUVs: 0
  m_IgnoreNormalsForChartDetection: 0
  m_ImportantGI: 0
  m_StitchLightmapSeams: 0
  m_SelectedEditorRenderState: 0
  m_MinimumChartSize: 4
  m_AutoUVMaxDistance: 0.5
  m_AutoUVMaxAngle: 89
  m_LightmapParameters: {fileID: 0}
  m_SortingLayerID: 0
  m_SortingLayer: 0
  m_SortingOrder: 0
  m_ChunkSize: {x: 32, y: 32, z: 32}
  m_ChunkCullingBounds: {x: 0, y: 0, z: 0}
  m_MaxChunkCount: 16
  m_MaxFrameAge: 16
  m_SortOrder: 0
  m_Mode: 0
  m_DetectChunkCullingBounds: 0
  m_MaskInteraction: 0
--- !u!1 &8971107086922731514
GameObject:
  m_ObjectHideFlags: 0
  m_CorrespondingSourceObject: {fileID: 0}
  m_PrefabInstance: {fileID: 0}
  m_PrefabAsset: {fileID: 0}
  serializedVersion: 6
  m_Component:
  - component: {fileID: 9088183466502657929}
  - component: {fileID: 2609677883433291862}
  m_Layer: 31
  m_Name: Objects
  m_TagString: Untagged
  m_Icon: {fileID: 0}
  m_NavMeshLayer: 0
  m_StaticEditorFlags: 0
  m_IsActive: 1
--- !u!4 &9088183466502657929
Transform:
  m_ObjectHideFlags: 0
  m_CorrespondingSourceObject: {fileID: 0}
  m_PrefabInstance: {fileID: 0}
  m_PrefabAsset: {fileID: 0}
  m_GameObject: {fileID: 8971107086922731514}
  m_LocalRotation: {x: 0, y: 0, z: 0, w: 1}
  m_LocalPosition: {x: 0, y: 0, z: 0}
  m_LocalScale: {x: 1, y: 1, z: 1}
  m_Children:
  - {fileID: 3359227506867848379}
  m_Father: {fileID: 0}
  m_RootOrder: 0
  m_LocalEulerAnglesHint: {x: 0, y: 0, z: 0}
--- !u!156049354 &2609677883433291862
Grid:
  m_ObjectHideFlags: 0
  m_CorrespondingSourceObject: {fileID: 0}
  m_PrefabInstance: {fileID: 0}
  m_PrefabAsset: {fileID: 0}
  m_GameObject: {fileID: 8971107086922731514}
  m_Enabled: 1
  m_CellSize: {x: 0.13, y: 0.16, z: 0}
  m_CellGap: {x: 0, y: 0, z: 0}
  m_CellLayout: 0
  m_CellSwizzle: 0
--- !u!114 &114474455031938876
MonoBehaviour:
  m_ObjectHideFlags: 0
  m_CorrespondingSourceObject: {fileID: 0}
  m_PrefabInstance: {fileID: 0}
  m_PrefabAsset: {fileID: 0}
  m_GameObject: {fileID: 0}
  m_Enabled: 1
  m_EditorHideFlags: 0
  m_Script: {fileID: 12395, guid: 0000000000000000e000000000000000, type: 0}
  m_Name: Palette Settings
  m_EditorClassIdentifier: 
  cellSizing: 0
